Pivoting in R – STAT 201: Intro. to Statistics and Data Science
…
What are the units of observation in the relig_income data?

We will do this with the pivot_longer() function. This function requires a couple of arguments:

cols: which columns to pivot into a “longer” format. That is, the columns that we should “move”

names_to: a string character that provides the new column name for the categorical variable you are creating

values_to: a string character that provides the new variable name for the response/outcome variable that is common across all levels of the categorical variable

relig_income_long <- relig_income |>
  pivot_longer(cols = 2:11, names_to = "income_range",  values_to = "count")
relig_income_long 

# A tibble: 180 × 3
   religion income_range       count
   <chr>    <chr>              <dbl>
 1 Agnostic <$10k                 27
 2 Agnostic $10-20k               34
 3 Agnostic $20-30k               60
 4 Agnostic $30-40k               81
 5 Agnostic $40-50k               76
 6 Agnostic $50-75k              137
 7 Agnostic $75-100k             122
 8 Agnostic $100-150k            109
 9 Agnostic >150k                 84
10 Agnostic Don't know/refused    96
# ℹ 170 more rows

Note that the unit of observation is repeated down several rows!

The following achieve the same result:

relig_income |>
  pivot_longer(cols = -c(1), names_to = "income_range",  values_to = "count")

# A tibble: 180 × 3
   religion income_range       count
   <chr>    <chr>              <dbl>
 1 Agnostic <$10k                 27
 2 Agnostic $10-20k               34
 3 Agnostic $20-30k               60
 4 Agnostic $30-40k               81
 5 Agnostic $40-50k               76
 6 Agnostic $50-75k              137
 7 Agnostic $75-100k             122
 8 Agnostic $100-150k            109
 9 Agnostic >150k                 84
10 Agnostic Don't know/refused    96
# ℹ 170 more rows

relig_income |>
  pivot_longer(cols = !religion, names_to = "income_range",  values_to = "count")

# A tibble: 180 × 3
   religion income_range       count
   <chr>    <chr>              <dbl>
 1 Agnostic <$10k                 27
 2 Agnostic $10-20k               34
 3 Agnostic $20-30k               60
 4 Agnostic $30-40k               81
 5 Agnostic $40-50k               76
 6 Agnostic $50-75k              137
 7 Agnostic $75-100k             122
 8 Agnostic $100-150k            109
 9 Agnostic >150k                 84
10 Agnostic Don't know/refused    96
# ℹ 170 more rows
…
